<svg xmlns="http://www.w3.org/2000/svg" viewBox="0 0 362.28 455.89">
    <defs>
        <style>.cls-1{fill:#fff;}</style>
    </defs>
    <g id="Livello_2" data-name="Livello 2">
        <g id="Capa_1" data-name="Capa 1">
            <path class="cls-1" d="M148.7,109.77,145.55,113l-2,2.09a1.57,1.57,0,0,1-2.24,0l-6.95-7a1.6,1.6,0,0,0-2.24,0l-6.77,6.93a1.56,1.56,0,0,1-2.23,0l-7-7a1.6,1.6,0,0,0-2.24,0l-6.76,6.93a1.57,1.57,0,0,1-2.24,0l-7-6.95a1.59,1.59,0,0,0-2.24,0l-6.77,6.9a1.58,1.58,0,0,1-2.24,0l-5.38-5.52a1.58,1.58,0,0,0-2.71,1.09V203.2H34.86v8.33c0,14.09,13.5,25.5,30.16,25.5h57.35a30,30,0,0,0,29-30.07V110.86A1.57,1.57,0,0,0,148.7,109.77ZM134,162.29h7.14a.73.73,0,0,1,0,1.45H134a.73.73,0,1,1,0-1.45Zm-.73-9.2a.73.73,0,0,1,.73-.72h7.14a.72.72,0,0,1,0,1.44H134A.73.73,0,0,1,133.22,153.09Zm.73,19.13h7.14a.72.72,0,0,1,.72.72h0a.72.72,0,0,1-.72.72H134a.73.73,0,0,1-.73-.72h0A.73.73,0,0,1,134,172.22Zm0,9.92h7.14a.73.73,0,0,1,0,1.45H134a.73.73,0,1,1,0-1.45Zm8,10.66a.74.74,0,1,1,0,1.47H87.83a.74.74,0,0,1,0-1.47Zm-5,12.51c.1,0,.18.05.18.15v.4a.16.16,0,0,1-.18.16h-3.57a.17.17,0,0,1-.18-.17v-.73a2.7,2.7,0,0,1,1.37-2.37l.91-.61c.75-.5.93-.72.93-1.26S136,200,135,200a12.67,12.67,0,0,0-1.59.14h0c-.09,0-.14-.06-.14-.16v-.32c0-.09.08-.14.17-.16a6.82,6.82,0,0,1,1.6-.18c1.46,0,2.15.5,2.15,1.61,0,.71-.33,1.17-1.17,1.74l-.86.58c-1,.68-1.26,1.14-1.26,1.92v.19Zm-9.5-3a.18.18,0,0,1-.18-.18v-.25a.18.18,0,0,1,.18-.18h.3a2.37,2.37,0,0,1,2.51-2.41,8.16,8.16,0,0,1,1.37.14c.08,0,.14,0,.14.12V200s0,.1-.11.1h0c-.33,0-.85-.08-1.37-.08a1.6,1.6,0,0,0-1.69,1.67h2.61a.14.14,0,0,1,.15.15.1.1,0,0,0,0,0l-.06.25c0,.1-.08.18-.18.18h-2.53V203h2.31a.14.14,0,0,1,.14.14s0,0,0,0l-.07.25c0,.1-.08.18-.18.18h-2.18a1.63,1.63,0,0,0,1.7,1.71c.52,0,1,0,1.34-.07h0a.13.13,0,0,1,.15.15v.36a.18.18,0,0,1-.18.18,5.2,5.2,0,0,1-1.35.12,2.39,2.39,0,0,1-2.51-2.45h-.3a.18.18,0,0,1-.18-.18v-.25a.18.18,0,0,1,.18-.18h.29v-.73Zm2.37-30.15a.88.88,0,1,1-.88.87A.87.87,0,0,1,129.79,172.14Zm-.88-9a.88.88,0,1,1,.88.87A.88.88,0,0,1,128.91,163.09Zm.88,19a.88.88,0,1,1-.88.88A.88.88,0,0,1,129.79,182.06Zm0-28a.88.88,0,0,1,0-1.76.88.88,0,0,1,0,1.76ZM129,138.23H100.71a.75.75,0,0,1,0-1.5H129a.75.75,0,0,1,0,1.5Zm-13.23,14.2a.75.75,0,0,1,.75.74.76.76,0,0,1-.75.75H87.48a.76.76,0,0,1-.75-.75.75.75,0,0,1,.75-.74Zm-28.32,9.78H115.8a.75.75,0,0,1,0,1.5H87.48a.75.75,0,1,1,0-1.5Zm0,9.79H115.8a.76.76,0,0,1,.75.75.75.75,0,0,1-.75.74H87.48a.75.75,0,0,1-.75-.74A.76.76,0,0,1,87.48,172Zm-.75,10.54a.76.76,0,0,1,.75-.75H115.8a.76.76,0,0,1,.75.75.75.75,0,0,1-.75.74H87.48A.75.75,0,0,1,86.73,182.54Zm55.18,30.34H87.83a.74.74,0,0,1,0-1.48h54.08a.74.74,0,0,1,0,1.48Zm1-8.89c0,1.33-.84,2.09-2.3,2.09a6.86,6.86,0,0,1-1.58-.16c-.1,0-.17-.06-.17-.18v-.33a.12.12,0,0,1,.13-.14H139a9.2,9.2,0,0,0,1.57.13c1,0,1.47-.5,1.47-1.41v-.14c0-.9-.56-1.21-1.88-1.21h-1.08a.15.15,0,0,1-.14-.15h0l.25-3a.18.18,0,0,1,.18-.16h3.09a.16.16,0,0,1,.18.16v.39c0,.1-.08.15-.18.15h-2.58l-.14,1.94h.42c1.67,0,2.71.44,2.71,1.88Zm-.65-70.56H87.52a.75.75,0,0,1-.75-.74.76.76,0,0,1,.75-.75h54.7a.76.76,0,0,1,.75.75A.75.75,0,0,1,142.22,133.43Z" />
            <path class="cls-1" d="M308.74,251.46l-1.18,2.66c-2.16-3.74-5.19-9.4-8.6-15.76-9.58-17.93-22.72-42.49-36.32-61.65l-.27-.37c-13.52-17.46-27.55-28-44.93-28a60,60,0,0,0-17.67,2.81c-20.58,6.33-24.75,21.9-25.16,27.42-.8,10.66,3.62,33.42,28.07,39.08l0,17.89c10.44-2.93,23.24-8.79,24.27-17.52a17,17,0,0,0-9-17.31C199.21,191.48,197.5,184.9,197.8,182c1.31-13.18,26.1-19.46,47.69,8.33,12.73,18,25.41,41.7,34.68,59,3,5.61,5.6,10.47,7.76,14.3l-61.6,138.72a59.81,59.81,0,0,0-16.73-2.49c-3.34,0-6.4.28-9.38.57-3.27.3-6.66.62-11,.62-2.89,0-5.9-.14-9.21-.42-19.62-1.67-51.1-17.65-65.49-26.15-7.11-5.46-5.15-6.65-5.46-7.23H87.32c-1.2,10.7-.43,14.16,15.07,25.81l.47.35.5.29c4.61,2.74,45.88,26.84,74.89,29.32,3.9.33,7.48.5,11,.5a128.15,128.15,0,0,0,13-.72c2.72-.26,5.06-.48,7.43-.48,3.9,0,8.86.52,18.65,4.26l2.1.87-1.1,2.48,53.53,26,79.49-178.44Z" />
            <path class="cls-1" d="M172,218v77.59l-155.4-1V52.25H172v97.6a50.93,50.93,0,0,1,18-12.35V17.6C190,7.89,181.77,0,171.6,0H18.43C8.27,0,0,7.9,0,17.6v316c0,9.69,8.26,17.59,18.43,17.59H171.6c10.17,0,18.43-7.9,18.43-17.59V232.91C180.36,228.49,174.4,221.86,172,218ZM137.83,27.53a6.21,6.21,0,0,1,6-4.64,6.26,6.26,0,1,1,0,12.51,6.19,6.19,0,0,1-6.07-5.13,3.12,3.12,0,0,1-.27-1.3A3.21,3.21,0,0,1,137.83,27.53Zm-75-2H127.4V33H62.83Zm63.78,306.64H63.24V315.07h63.37Z" />
        </g>
    </g>
</svg>